{
  "FreeRaspberry": {
    "SKU": ["43N23P"],
    "MainPurchase": {
      "43N23P": {
        "free_items": ["234234"],
        "discount": 0
      }
    }
  },
  "BuyNumberXForPriceY": {
    "SKU": ["120P90"],
    "MainPurchase": {
      "120P90": {
        "free_items": [],
        "discount": 0
      }
    }
  },

  "BuyMoreThanXGetDiscountY": {
    "SKU": ["A304SD"],
    "MainPurchase": {
      "A304SD": {
        "free_items": [],
        "discount": 10
      }
    }
  }
}
